com/mx/banorte/services/mo/Objeto.class
com/mx/banorte/services/mo/Message.class
com/mx/banorte/services/mo/ObjectXml.class
com/mx/banorte/services/soapservices/SoapService.class
com/mx/banorte/services/restservices/RestoSoapGatewayService.class
com/mx/banorte/services/soapservices/SoapServiceResta.class
com/mx/banorte/services/restservices/RestoRestGatewayService.class
