/home/gerald/Desktop/New Folder/svr02-bussines-gateway/src/main/java/com/mx/banorte/services/mo/Objeto.java
/home/gerald/Desktop/New Folder/svr02-bussines-gateway/src/main/java/com/mx/banorte/services/soapservices/SoapServiceResta.java
/home/gerald/Desktop/New Folder/svr02-bussines-gateway/src/main/java/com/mx/banorte/services/restservices/RestoSoapGatewayService.java
/home/gerald/Desktop/New Folder/svr02-bussines-gateway/src/main/java/com/mx/banorte/services/mo/Message.java
/home/gerald/Desktop/New Folder/svr02-bussines-gateway/src/main/java/com/mx/banorte/services/soapservices/SoapService.java
/home/gerald/Desktop/New Folder/svr02-bussines-gateway/src/main/java/com/mx/banorte/services/mo/ObjectXml.java
/home/gerald/Desktop/New Folder/svr02-bussines-gateway/src/main/java/com/mx/banorte/services/restservices/RestoRestGatewayService.java
